^C:\PROGRAM FILES\MICROSOFT SDKS\WINDOWS\V7.1\SAMPLES\MULTIMEDIA\DIRECTSHOW\BASECLASSES\AMEXTRA.CPP|C:\PROGRAM FILES\MICROSOFT SDKS\WINDOWS\V7.1\SAMPLES\MULTIMEDIA\DIRECTSHOW\BASECLASSES\AMFILTER.CPP|C:\PROGRAM FILES\MICROSOFT SDKS\WINDOWS\V7.1\SAMPLES\MULTIMEDIA\DIRECTSHOW\BASECLASSES\AMVIDEO.CPP|C:\PROGRAM FILES\MICROSOFT SDKS\WINDOWS\V7.1\SAMPLES\MULTIMEDIA\DIRECTSHOW\BASECLASSES\ARITHUTIL.CPP|C:\PROGRAM FILES\MICROSOFT SDKS\WINDOWS\V7.1\SAMPLES\MULTIMEDIA\DIRECTSHOW\BASECLASSES\COMBASE.CPP|C:\PROGRAM FILES\MICROSOFT SDKS\WINDOWS\V7.1\SAMPLES\MULTIMEDIA\DIRECTSHOW\BASECLASSES\CPROP.CPP|C:\PROGRAM FILES\MICROSOFT SDKS\WINDOWS\V7.1\SAMPLES\MULTIMEDIA\DIRECTSHOW\BASECLASSES\CTLUTIL.CPP|C:\PROGRAM FILES\MICROSOFT SDKS\WINDOWS\V7.1\SAMPLES\MULTIMEDIA\DIRECTSHOW\BASECLASSES\DDMM.CPP|C:\PROGRAM FILES\MICROSOFT SDKS\WINDOWS\V7.1\SAMPLES\MULTIMEDIA\DIRECTSHOW\BASECLASSES\DLLENTRY.CPP|C:\PROGRAM FILES\MICROSOFT SDKS\WINDOWS\V7.1\SAMPLES\MULTIMEDIA\DIRECTSHOW\BASECLASSES\DLLSETUP.CPP|C:\PROGRAM FILES\MICROSOFT SDKS\WINDOWS\V7.1\SAMPLES\MULTIMEDIA\DIRECTSHOW\BASECLASSES\MTYPE.CPP|C:\PROGRAM FILES\MICROSOFT SDKS\WINDOWS\V7.1\SAMPLES\MULTIMEDIA\DIRECTSHOW\BASECLASSES\OUTPUTQ.CPP|C:\PROGRAM FILES\MICROSOFT SDKS\WINDOWS\V7.1\SAMPLES\MULTIMEDIA\DIRECTSHOW\BASECLASSES\PERFLOG.CPP|C:\PROGRAM FILES\MICROSOFT SDKS\WINDOWS\V7.1\SAMPLES\MULTIMEDIA\DIRECTSHOW\BASECLASSES\PSTREAM.CPP|C:\PROGRAM FILES\MICROSOFT SDKS\WINDOWS\V7.1\SAMPLES\MULTIMEDIA\DIRECTSHOW\BASECLASSES\PULLPIN.CPP|C:\PROGRAM FILES\MICROSOFT SDKS\WINDOWS\V7.1\SAMPLES\MULTIMEDIA\DIRECTSHOW\BASECLASSES\REFCLOCK.CPP|C:\PROGRAM FILES\MICROSOFT SDKS\WINDOWS\V7.1\SAMPLES\MULTIMEDIA\DIRECTSHOW\BASECLASSES\RENBASE.CPP|C:\PROGRAM FILES\MICROSOFT SDKS\WINDOWS\V7.1\SAMPLES\MULTIMEDIA\DIRECTSHOW\BASECLASSES\SCHEDULE.CPP|C:\PROGRAM FILES\MICROSOFT SDKS\WINDOWS\V7.1\SAMPLES\MULTIMEDIA\DIRECTSHOW\BASECLASSES\SEEKPT.CPP|C:\PROGRAM FILES\MICROSOFT SDKS\WINDOWS\V7.1\SAMPLES\MULTIMEDIA\DIRECTSHOW\BASECLASSES\SOURCE.CPP|C:\PROGRAM FILES\MICROSOFT SDKS\WINDOWS\V7.1\SAMPLES\MULTIMEDIA\DIRECTSHOW\BASECLASSES\STRMCTL.CPP|C:\PROGRAM FILES\MICROSOFT SDKS\WINDOWS\V7.1\SAMPLES\MULTIMEDIA\DIRECTSHOW\BASECLASSES\SYSCLOCK.CPP|C:\PROGRAM FILES\MICROSOFT SDKS\WINDOWS\V7.1\SAMPLES\MULTIMEDIA\DIRECTSHOW\BASECLASSES\TRANSFRM.CPP|C:\PROGRAM FILES\MICROSOFT SDKS\WINDOWS\V7.1\SAMPLES\MULTIMEDIA\DIRECTSHOW\BASECLASSES\TRANSIP.CPP|C:\PROGRAM FILES\MICROSOFT SDKS\WINDOWS\V7.1\SAMPLES\MULTIMEDIA\DIRECTSHOW\BASECLASSES\VIDEOCTL.CPP|C:\PROGRAM FILES\MICROSOFT SDKS\WINDOWS\V7.1\SAMPLES\MULTIMEDIA\DIRECTSHOW\BASECLASSES\VTRANS.CPP|C:\PROGRAM FILES\MICROSOFT SDKS\WINDOWS\V7.1\SAMPLES\MULTIMEDIA\DIRECTSHOW\BASECLASSES\WINCTRL.CPP|C:\PROGRAM FILES\MICROSOFT SDKS\WINDOWS\V7.1\SAMPLES\MULTIMEDIA\DIRECTSHOW\BASECLASSES\WINUTIL.CPP|C:\PROGRAM FILES\MICROSOFT SDKS\WINDOWS\V7.1\SAMPLES\MULTIMEDIA\DIRECTSHOW\BASECLASSES\WXDEBUG.CPP|C:\PROGRAM FILES\MICROSOFT SDKS\WINDOWS\V7.1\SAMPLES\MULTIMEDIA\DIRECTSHOW\BASECLASSES\WXLIST.CPP|C:\PROGRAM FILES\MICROSOFT SDKS\WINDOWS\V7.1\SAMPLES\MULTIMEDIA\DIRECTSHOW\BASECLASSES\WXUTIL.CPP
C:\PROGRAM FILES\MICROSOFT SDKS\WINDOWS\V7.1\SAMPLES\MULTIMEDIA\DIRECTSHOW\BASECLASSES\DEBUG_MBCS\BASECLASSES.PDB
C:\PROGRAM FILES\MICROSOFT SDKS\WINDOWS\V7.1\SAMPLES\MULTIMEDIA\DIRECTSHOW\BASECLASSES\DEBUG_MBCS\BASECLASSES.IDB
C:\PROGRAM FILES\MICROSOFT SDKS\WINDOWS\V7.1\SAMPLES\MULTIMEDIA\DIRECTSHOW\BASECLASSES\DEBUG_MBCS\OUTPUTQ.OBJ
C:\PROGRAM FILES\MICROSOFT SDKS\WINDOWS\V7.1\SAMPLES\MULTIMEDIA\DIRECTSHOW\BASECLASSES\DEBUG_MBCS\PERFLOG.OBJ
C:\PROGRAM FILES\MICROSOFT SDKS\WINDOWS\V7.1\SAMPLES\MULTIMEDIA\DIRECTSHOW\BASECLASSES\DEBUG_MBCS\PSTREAM.OBJ
C:\PROGRAM FILES\MICROSOFT SDKS\WINDOWS\V7.1\SAMPLES\MULTIMEDIA\DIRECTSHOW\BASECLASSES\DEBUG_MBCS\PULLPIN.OBJ
C:\PROGRAM FILES\MICROSOFT SDKS\WINDOWS\V7.1\SAMPLES\MULTIMEDIA\DIRECTSHOW\BASECLASSES\DEBUG_MBCS\REFCLOCK.OBJ
C:\PROGRAM FILES\MICROSOFT SDKS\WINDOWS\V7.1\SAMPLES\MULTIMEDIA\DIRECTSHOW\BASECLASSES\DEBUG_MBCS\RENBASE.OBJ
C:\PROGRAM FILES\MICROSOFT SDKS\WINDOWS\V7.1\SAMPLES\MULTIMEDIA\DIRECTSHOW\BASECLASSES\DEBUG_MBCS\SCHEDULE.OBJ
C:\PROGRAM FILES\MICROSOFT SDKS\WINDOWS\V7.1\SAMPLES\MULTIMEDIA\DIRECTSHOW\BASECLASSES\DEBUG_MBCS\SEEKPT.OBJ
C:\PROGRAM FILES\MICROSOFT SDKS\WINDOWS\V7.1\SAMPLES\MULTIMEDIA\DIRECTSHOW\BASECLASSES\DEBUG_MBCS\SOURCE.OBJ
C:\PROGRAM FILES\MICROSOFT SDKS\WINDOWS\V7.1\SAMPLES\MULTIMEDIA\DIRECTSHOW\BASECLASSES\DEBUG_MBCS\STRMCTL.OBJ
C:\PROGRAM FILES\MICROSOFT SDKS\WINDOWS\V7.1\SAMPLES\MULTIMEDIA\DIRECTSHOW\BASECLASSES\DEBUG_MBCS\SYSCLOCK.OBJ
C:\PROGRAM FILES\MICROSOFT SDKS\WINDOWS\V7.1\SAMPLES\MULTIMEDIA\DIRECTSHOW\BASECLASSES\DEBUG_MBCS\TRANSFRM.OBJ
C:\PROGRAM FILES\MICROSOFT SDKS\WINDOWS\V7.1\SAMPLES\MULTIMEDIA\DIRECTSHOW\BASECLASSES\DEBUG_MBCS\TRANSIP.OBJ
C:\PROGRAM FILES\MICROSOFT SDKS\WINDOWS\V7.1\SAMPLES\MULTIMEDIA\DIRECTSHOW\BASECLASSES\DEBUG_MBCS\VIDEOCTL.OBJ
C:\PROGRAM FILES\MICROSOFT SDKS\WINDOWS\V7.1\SAMPLES\MULTIMEDIA\DIRECTSHOW\BASECLASSES\DEBUG_MBCS\VTRANS.OBJ
C:\PROGRAM FILES\MICROSOFT SDKS\WINDOWS\V7.1\SAMPLES\MULTIMEDIA\DIRECTSHOW\BASECLASSES\DEBUG_MBCS\WINCTRL.OBJ
C:\PROGRAM FILES\MICROSOFT SDKS\WINDOWS\V7.1\SAMPLES\MULTIMEDIA\DIRECTSHOW\BASECLASSES\DEBUG_MBCS\WINUTIL.OBJ
C:\PROGRAM FILES\MICROSOFT SDKS\WINDOWS\V7.1\SAMPLES\MULTIMEDIA\DIRECTSHOW\BASECLASSES\DEBUG_MBCS\WXDEBUG.OBJ
C:\PROGRAM FILES\MICROSOFT SDKS\WINDOWS\V7.1\SAMPLES\MULTIMEDIA\DIRECTSHOW\BASECLASSES\DEBUG_MBCS\WXLIST.OBJ
C:\PROGRAM FILES\MICROSOFT SDKS\WINDOWS\V7.1\SAMPLES\MULTIMEDIA\DIRECTSHOW\BASECLASSES\DEBUG_MBCS\WXUTIL.OBJ
C:\PROGRAM FILES\MICROSOFT SDKS\WINDOWS\V7.1\SAMPLES\MULTIMEDIA\DIRECTSHOW\BASECLASSES\DEBUG_MBCS\AMEXTRA.OBJ
C:\PROGRAM FILES\MICROSOFT SDKS\WINDOWS\V7.1\SAMPLES\MULTIMEDIA\DIRECTSHOW\BASECLASSES\DEBUG_MBCS\AMFILTER.OBJ
C:\PROGRAM FILES\MICROSOFT SDKS\WINDOWS\V7.1\SAMPLES\MULTIMEDIA\DIRECTSHOW\BASECLASSES\DEBUG_MBCS\AMVIDEO.OBJ
C:\PROGRAM FILES\MICROSOFT SDKS\WINDOWS\V7.1\SAMPLES\MULTIMEDIA\DIRECTSHOW\BASECLASSES\DEBUG_MBCS\ARITHUTIL.OBJ
C:\PROGRAM FILES\MICROSOFT SDKS\WINDOWS\V7.1\SAMPLES\MULTIMEDIA\DIRECTSHOW\BASECLASSES\DEBUG_MBCS\COMBASE.OBJ
C:\PROGRAM FILES\MICROSOFT SDKS\WINDOWS\V7.1\SAMPLES\MULTIMEDIA\DIRECTSHOW\BASECLASSES\DEBUG_MBCS\CPROP.OBJ
C:\PROGRAM FILES\MICROSOFT SDKS\WINDOWS\V7.1\SAMPLES\MULTIMEDIA\DIRECTSHOW\BASECLASSES\DEBUG_MBCS\CTLUTIL.OBJ
C:\PROGRAM FILES\MICROSOFT SDKS\WINDOWS\V7.1\SAMPLES\MULTIMEDIA\DIRECTSHOW\BASECLASSES\DEBUG_MBCS\DDMM.OBJ
C:\PROGRAM FILES\MICROSOFT SDKS\WINDOWS\V7.1\SAMPLES\MULTIMEDIA\DIRECTSHOW\BASECLASSES\DEBUG_MBCS\DLLENTRY.OBJ
C:\PROGRAM FILES\MICROSOFT SDKS\WINDOWS\V7.1\SAMPLES\MULTIMEDIA\DIRECTSHOW\BASECLASSES\DEBUG_MBCS\DLLSETUP.OBJ
C:\PROGRAM FILES\MICROSOFT SDKS\WINDOWS\V7.1\SAMPLES\MULTIMEDIA\DIRECTSHOW\BASECLASSES\DEBUG_MBCS\MTYPE.OBJ
^C:\PROGRAM FILES\MICROSOFT SDKS\WINDOWS\V7.1\SAMPLES\MULTIMEDIA\DIRECTSHOW\BASECLASSES\AMEXTRA.CPP
C:\PROGRAM FILES\MICROSOFT SDKS\WINDOWS\V7.1\SAMPLES\MULTIMEDIA\DIRECTSHOW\BASECLASSES\DEBUG_MBCS\BASECLASSES.PDB
^C:\PROGRAM FILES\MICROSOFT SDKS\WINDOWS\V7.1\SAMPLES\MULTIMEDIA\DIRECTSHOW\BASECLASSES\AMFILTER.CPP
C:\PROGRAM FILES\MICROSOFT SDKS\WINDOWS\V7.1\SAMPLES\MULTIMEDIA\DIRECTSHOW\BASECLASSES\DEBUG_MBCS\BASECLASSES.PDB
^C:\PROGRAM FILES\MICROSOFT SDKS\WINDOWS\V7.1\SAMPLES\MULTIMEDIA\DIRECTSHOW\BASECLASSES\AMVIDEO.CPP
C:\PROGRAM FILES\MICROSOFT SDKS\WINDOWS\V7.1\SAMPLES\MULTIMEDIA\DIRECTSHOW\BASECLASSES\DEBUG_MBCS\BASECLASSES.PDB
^C:\PROGRAM FILES\MICROSOFT SDKS\WINDOWS\V7.1\SAMPLES\MULTIMEDIA\DIRECTSHOW\BASECLASSES\ARITHUTIL.CPP
C:\PROGRAM FILES\MICROSOFT SDKS\WINDOWS\V7.1\SAMPLES\MULTIMEDIA\DIRECTSHOW\BASECLASSES\DEBUG_MBCS\BASECLASSES.PDB
^C:\PROGRAM FILES\MICROSOFT SDKS\WINDOWS\V7.1\SAMPLES\MULTIMEDIA\DIRECTSHOW\BASECLASSES\COMBASE.CPP
C:\PROGRAM FILES\MICROSOFT SDKS\WINDOWS\V7.1\SAMPLES\MULTIMEDIA\DIRECTSHOW\BASECLASSES\DEBUG_MBCS\BASECLASSES.PDB
^C:\PROGRAM FILES\MICROSOFT SDKS\WINDOWS\V7.1\SAMPLES\MULTIMEDIA\DIRECTSHOW\BASECLASSES\CPROP.CPP
C:\PROGRAM FILES\MICROSOFT SDKS\WINDOWS\V7.1\SAMPLES\MULTIMEDIA\DIRECTSHOW\BASECLASSES\DEBUG_MBCS\BASECLASSES.PDB
^C:\PROGRAM FILES\MICROSOFT SDKS\WINDOWS\V7.1\SAMPLES\MULTIMEDIA\DIRECTSHOW\BASECLASSES\CTLUTIL.CPP
C:\PROGRAM FILES\MICROSOFT SDKS\WINDOWS\V7.1\SAMPLES\MULTIMEDIA\DIRECTSHOW\BASECLASSES\DEBUG_MBCS\BASECLASSES.PDB
^C:\PROGRAM FILES\MICROSOFT SDKS\WINDOWS\V7.1\SAMPLES\MULTIMEDIA\DIRECTSHOW\BASECLASSES\DDMM.CPP
C:\PROGRAM FILES\MICROSOFT SDKS\WINDOWS\V7.1\SAMPLES\MULTIMEDIA\DIRECTSHOW\BASECLASSES\DEBUG_MBCS\BASECLASSES.PDB
^C:\PROGRAM FILES\MICROSOFT SDKS\WINDOWS\V7.1\SAMPLES\MULTIMEDIA\DIRECTSHOW\BASECLASSES\DLLENTRY.CPP
C:\PROGRAM FILES\MICROSOFT SDKS\WINDOWS\V7.1\SAMPLES\MULTIMEDIA\DIRECTSHOW\BASECLASSES\DEBUG_MBCS\BASECLASSES.PDB
^C:\PROGRAM FILES\MICROSOFT SDKS\WINDOWS\V7.1\SAMPLES\MULTIMEDIA\DIRECTSHOW\BASECLASSES\DLLSETUP.CPP
C:\PROGRAM FILES\MICROSOFT SDKS\WINDOWS\V7.1\SAMPLES\MULTIMEDIA\DIRECTSHOW\BASECLASSES\DEBUG_MBCS\BASECLASSES.PDB
^C:\PROGRAM FILES\MICROSOFT SDKS\WINDOWS\V7.1\SAMPLES\MULTIMEDIA\DIRECTSHOW\BASECLASSES\MTYPE.CPP
C:\PROGRAM FILES\MICROSOFT SDKS\WINDOWS\V7.1\SAMPLES\MULTIMEDIA\DIRECTSHOW\BASECLASSES\DEBUG_MBCS\BASECLASSES.PDB
^C:\PROGRAM FILES\MICROSOFT SDKS\WINDOWS\V7.1\SAMPLES\MULTIMEDIA\DIRECTSHOW\BASECLASSES\OUTPUTQ.CPP
C:\PROGRAM FILES\MICROSOFT SDKS\WINDOWS\V7.1\SAMPLES\MULTIMEDIA\DIRECTSHOW\BASECLASSES\DEBUG_MBCS\BASECLASSES.PDB
^C:\PROGRAM FILES\MICROSOFT SDKS\WINDOWS\V7.1\SAMPLES\MULTIMEDIA\DIRECTSHOW\BASECLASSES\PERFLOG.CPP
C:\PROGRAM FILES\MICROSOFT SDKS\WINDOWS\V7.1\SAMPLES\MULTIMEDIA\DIRECTSHOW\BASECLASSES\DEBUG_MBCS\BASECLASSES.PDB
^C:\PROGRAM FILES\MICROSOFT SDKS\WINDOWS\V7.1\SAMPLES\MULTIMEDIA\DIRECTSHOW\BASECLASSES\PSTREAM.CPP
C:\PROGRAM FILES\MICROSOFT SDKS\WINDOWS\V7.1\SAMPLES\MULTIMEDIA\DIRECTSHOW\BASECLASSES\DEBUG_MBCS\BASECLASSES.PDB
^C:\PROGRAM FILES\MICROSOFT SDKS\WINDOWS\V7.1\SAMPLES\MULTIMEDIA\DIRECTSHOW\BASECLASSES\PULLPIN.CPP
C:\PROGRAM FILES\MICROSOFT SDKS\WINDOWS\V7.1\SAMPLES\MULTIMEDIA\DIRECTSHOW\BASECLASSES\DEBUG_MBCS\BASECLASSES.PDB
^C:\PROGRAM FILES\MICROSOFT SDKS\WINDOWS\V7.1\SAMPLES\MULTIMEDIA\DIRECTSHOW\BASECLASSES\REFCLOCK.CPP
C:\PROGRAM FILES\MICROSOFT SDKS\WINDOWS\V7.1\SAMPLES\MULTIMEDIA\DIRECTSHOW\BASECLASSES\DEBUG_MBCS\BASECLASSES.PDB
^C:\PROGRAM FILES\MICROSOFT SDKS\WINDOWS\V7.1\SAMPLES\MULTIMEDIA\DIRECTSHOW\BASECLASSES\RENBASE.CPP
C:\PROGRAM FILES\MICROSOFT SDKS\WINDOWS\V7.1\SAMPLES\MULTIMEDIA\DIRECTSHOW\BASECLASSES\DEBUG_MBCS\BASECLASSES.PDB
^C:\PROGRAM FILES\MICROSOFT SDKS\WINDOWS\V7.1\SAMPLES\MULTIMEDIA\DIRECTSHOW\BASECLASSES\SCHEDULE.CPP
C:\PROGRAM FILES\MICROSOFT SDKS\WINDOWS\V7.1\SAMPLES\MULTIMEDIA\DIRECTSHOW\BASECLASSES\DEBUG_MBCS\BASECLASSES.PDB
^C:\PROGRAM FILES\MICROSOFT SDKS\WINDOWS\V7.1\SAMPLES\MULTIMEDIA\DIRECTSHOW\BASECLASSES\SEEKPT.CPP
C:\PROGRAM FILES\MICROSOFT SDKS\WINDOWS\V7.1\SAMPLES\MULTIMEDIA\DIRECTSHOW\BASECLASSES\DEBUG_MBCS\BASECLASSES.PDB
^C:\PROGRAM FILES\MICROSOFT SDKS\WINDOWS\V7.1\SAMPLES\MULTIMEDIA\DIRECTSHOW\BASECLASSES\SOURCE.CPP
C:\PROGRAM FILES\MICROSOFT SDKS\WINDOWS\V7.1\SAMPLES\MULTIMEDIA\DIRECTSHOW\BASECLASSES\DEBUG_MBCS\BASECLASSES.PDB
^C:\PROGRAM FILES\MICROSOFT SDKS\WINDOWS\V7.1\SAMPLES\MULTIMEDIA\DIRECTSHOW\BASECLASSES\STRMCTL.CPP
C:\PROGRAM FILES\MICROSOFT SDKS\WINDOWS\V7.1\SAMPLES\MULTIMEDIA\DIRECTSHOW\BASECLASSES\DEBUG_MBCS\BASECLASSES.PDB
^C:\PROGRAM FILES\MICROSOFT SDKS\WINDOWS\V7.1\SAMPLES\MULTIMEDIA\DIRECTSHOW\BASECLASSES\SYSCLOCK.CPP
C:\PROGRAM FILES\MICROSOFT SDKS\WINDOWS\V7.1\SAMPLES\MULTIMEDIA\DIRECTSHOW\BASECLASSES\DEBUG_MBCS\BASECLASSES.PDB
^C:\PROGRAM FILES\MICROSOFT SDKS\WINDOWS\V7.1\SAMPLES\MULTIMEDIA\DIRECTSHOW\BASECLASSES\TRANSFRM.CPP
C:\PROGRAM FILES\MICROSOFT SDKS\WINDOWS\V7.1\SAMPLES\MULTIMEDIA\DIRECTSHOW\BASECLASSES\DEBUG_MBCS\BASECLASSES.PDB
^C:\PROGRAM FILES\MICROSOFT SDKS\WINDOWS\V7.1\SAMPLES\MULTIMEDIA\DIRECTSHOW\BASECLASSES\TRANSIP.CPP
C:\PROGRAM FILES\MICROSOFT SDKS\WINDOWS\V7.1\SAMPLES\MULTIMEDIA\DIRECTSHOW\BASECLASSES\DEBUG_MBCS\BASECLASSES.PDB
^C:\PROGRAM FILES\MICROSOFT SDKS\WINDOWS\V7.1\SAMPLES\MULTIMEDIA\DIRECTSHOW\BASECLASSES\VIDEOCTL.CPP
C:\PROGRAM FILES\MICROSOFT SDKS\WINDOWS\V7.1\SAMPLES\MULTIMEDIA\DIRECTSHOW\BASECLASSES\DEBUG_MBCS\BASECLASSES.PDB
^C:\PROGRAM FILES\MICROSOFT SDKS\WINDOWS\V7.1\SAMPLES\MULTIMEDIA\DIRECTSHOW\BASECLASSES\VTRANS.CPP
C:\PROGRAM FILES\MICROSOFT SDKS\WINDOWS\V7.1\SAMPLES\MULTIMEDIA\DIRECTSHOW\BASECLASSES\DEBUG_MBCS\BASECLASSES.PDB
^C:\PROGRAM FILES\MICROSOFT SDKS\WINDOWS\V7.1\SAMPLES\MULTIMEDIA\DIRECTSHOW\BASECLASSES\WINCTRL.CPP
C:\PROGRAM FILES\MICROSOFT SDKS\WINDOWS\V7.1\SAMPLES\MULTIMEDIA\DIRECTSHOW\BASECLASSES\DEBUG_MBCS\BASECLASSES.PDB
^C:\PROGRAM FILES\MICROSOFT SDKS\WINDOWS\V7.1\SAMPLES\MULTIMEDIA\DIRECTSHOW\BASECLASSES\WINUTIL.CPP
C:\PROGRAM FILES\MICROSOFT SDKS\WINDOWS\V7.1\SAMPLES\MULTIMEDIA\DIRECTSHOW\BASECLASSES\DEBUG_MBCS\BASECLASSES.PDB
^C:\PROGRAM FILES\MICROSOFT SDKS\WINDOWS\V7.1\SAMPLES\MULTIMEDIA\DIRECTSHOW\BASECLASSES\WXDEBUG.CPP
C:\PROGRAM FILES\MICROSOFT SDKS\WINDOWS\V7.1\SAMPLES\MULTIMEDIA\DIRECTSHOW\BASECLASSES\DEBUG_MBCS\BASECLASSES.PDB
^C:\PROGRAM FILES\MICROSOFT SDKS\WINDOWS\V7.1\SAMPLES\MULTIMEDIA\DIRECTSHOW\BASECLASSES\WXLIST.CPP
C:\PROGRAM FILES\MICROSOFT SDKS\WINDOWS\V7.1\SAMPLES\MULTIMEDIA\DIRECTSHOW\BASECLASSES\DEBUG_MBCS\BASECLASSES.PDB
^C:\PROGRAM FILES\MICROSOFT SDKS\WINDOWS\V7.1\SAMPLES\MULTIMEDIA\DIRECTSHOW\BASECLASSES\WXUTIL.CPP
C:\PROGRAM FILES\MICROSOFT SDKS\WINDOWS\V7.1\SAMPLES\MULTIMEDIA\DIRECTSHOW\BASECLASSES\DEBUG_MBCS\BASECLASSES.PDB
